autotest — ropensci-review-tools 0.0.1 documentation
…
What is tested?¶

The package includes a function which lists all tests currently
implemented.

autotest_types ()
#> # A tibble: 27 × 8
#>    type  test_name  fn_name parameter parameter_type operation   content   test 
#>    <chr> <chr>      <chr>   <chr>     <chr>          <chr>       <chr>     <lgl>
#>  1 dummy rect_as_o… <NA>    <NA>      rectangular    Convert on… "check f… TRUE 
#>  2 dummy rect_comp… <NA>    <NA>      rectangular    Convert on… "expect … TRUE 
#>  3 dummy rect_comp… <NA>    <NA>      rectangular    Convert on… "expect … TRUE 
#>  4 dummy rect_comp… <NA>    <NA>      rectangular    Convert on… "expect … TRUE 
#>  5 dummy extend_re… <NA>    <NA>      rectangular    Extend exi… "(Should… TRUE 
#>  6 dummy replace_r… <NA>    <NA>      rectangular    Replace cl… "(Should… TRUE 
#>  7 dummy vector_to… <NA>    <NA>      vector         Convert ve… "(Should… TRUE 
#>  8 dummy vector_cu… <NA>    <NA>      vector         Custom cla… "(Should… TRUE 
#>  9 dummy double_is… <NA>    <NA>      numeric        Check whet… "int par… TRUE 
#> 10 dummy trivial_n… <NA>    <NA>      numeric        Add trivia… "(Should… TRUE 
#> # … with 17 more rows
…
x <- autotest_package (package = "stats", functions = "var", test = FALSE)
#> 
#> ── autotesting stats ──
#> 
#> ✔ [1 / 6]: var
#> ✔ [2 / 6]: cor
#> ✔ [3 / 6]: cor
#> ✔ [4 / 6]: cov
#> ✔ [5 / 6]: cov
#> ✔ [6 / 6]: cor
print (x)
#> # A tibble: 185 × 9
#>    type    test_name  fn_name parameter parameter_type operation  content  test 
#>    <chr>   <chr>      <chr>   <chr>     <chr>          <chr>      <chr>    <lgl>
#>  1 warning par_is_de… var     use       <NA>           Check tha… Example… TRUE 
#>  2 warning par_is_de… cov     y         <NA>           Check tha… Example… TRUE 
#>  3 dummy   trivial_n… var     x         numeric        Add trivi… (Should… TRUE 
#>  4 dummy   vector_cu… var     x         vector         Custom cl… (Should… TRUE 
#>  5 dummy   vector_to… var     x         vector         Convert v… (Should… TRUE 
#>  6 dummy   negate_lo… var     na.rm     single logical Negate de… (Functi… TRUE 
#>  7 dummy   subst_int… var     na.rm     single logical Substitut… (Functi… TRUE 
#>  8 dummy   subst_cha… var     na.rm     single logical Substitut… should … TRUE 
#>  9 dummy   single_pa… var     na.rm     single logical Length 2 … Should … TRUE 
#> 10 dummy   return_su… var     (return … (return objec… Check tha… <NA>     TRUE 
#> # … with 175 more rows, and 1 more variable: yaml_hash <chr>
…
y <- autotest_package (package = "stats", functions = "var", test = TRUE)
#> ── autotesting stats ──
#> 
#> ✔ [1 / 6]: var
#> ✔ [2 / 6]: cor
#> ✔ [3 / 6]: cor
#> ✔ [4 / 6]: cov
#> ✔ [5 / 6]: cov
#> ✔ [6 / 6]: cor
print (y)
#> # A tibble: 23 × 9
#>    type       test_name fn_name parameter parameter_type operation content test 
#>    <chr>      <chr>     <chr>   <chr>     <chr>          <chr>     <chr>   <lgl>
#>  1 warning    par_is_d… var     use       <NA>           Check th… "Examp… TRUE 
#>  2 warning    par_is_d… cov     y         <NA>           Check th… "Examp… TRUE 
#>  3 diagnostic vector_t… var     x         vector         Convert … "Funct… TRUE 
#>  4 diagnostic vector_t… var     x         vector         Convert … "Funct… TRUE 
#>  5 diagnostic vector_t… var     y         vector         Convert … "Funct… TRUE 
#>  6 diagnostic single_c… cor     use       single charac… upper-ca… "is ca… TRUE 
#>  7 diagnostic single_c… cor     method    single charac… upper-ca… "is ca… TRUE 
#>  8 diagnostic vector_c… cor     x         vector         Custom c… "Funct… TRUE 
#>  9 diagnostic single_c… cor     method    single charac… upper-ca… "is ca… TRUE 
#> 10 diagnostic single_c… cor     use       single charac… upper-ca… "is ca… TRUE 
#> # … with 13 more rows, and 1 more variable: yaml_hash <chr>
…
types <- autotest_types (notest = "vector_to_list_col")
y <- autotest_package (package = "stats", functions = "var",
                       test = TRUE, test_data = types)
#> ── autotesting stats ──
#> 
#> ✔ [1 / 6]: var
#> ✔ [2 / 6]: cor
#> ✔ [3 / 6]: cor
#> ✔ [4 / 6]: cov
#> ✔ [5 / 6]: cov
#> ✔ [6 / 6]: cor
print (y)
#> # A tibble: 28 × 9
#>    type       test_name fn_name parameter parameter_type operation content test 
#>    <chr>      <chr>     <chr>   <chr>     <chr>          <chr>     <chr>   <lgl>
#>  1 warning    par_is_d… var     use       <NA>           Check th… Exampl… TRUE 
#>  2 warning    par_is_d… cov     y         <NA>           Check th… Exampl… TRUE 
#>  3 diagnostic single_c… cor     use       single charac… upper-ca… is cas… TRUE 
#>  4 diagnostic single_c… cor     method    single charac… upper-ca… is cas… TRUE 
#>  5 diagnostic vector_c… cor     x         vector         Custom c… Functi… TRUE 
#>  6 diagnostic single_c… cor     method    single charac… upper-ca… is cas… TRUE 
#>  7 diagnostic single_c… cor     use       single charac… upper-ca… is cas… TRUE 
#>  8 diagnostic single_c… cor     use       single charac… upper-ca… is cas… TRUE 
#>  9 diagnostic single_c… cor     method    single charac… upper-ca… is cas… TRUE 
#> 10 diagnostic vector_c… cov     x         vector         Custom c… Functi… TRUE 
#> # … with 18 more rows, and 1 more variable: yaml_hash <chr>
…
